Tamagotchi/Simulacion_fsm/tamagotchi_tb.vcd
$date
	Thu Sep  5 18:35:29 2024
$end
$version
	Icarus Verilog
$end
$timescale
	1ps
$end
$scope module tamagotchi_tb $end
$var wire 7 ! seg_display [6:0] $end
$var wire 4 " display_out [3:0] $end
$var reg 1 # btn_diversion $end
$var reg 1 $ btn_energia $end
$var reg 1 % btn_hambre $end
$var reg 1 & btn_reset $end
$var reg 1 ' btn_salud $end
$var reg 1 ( btn_test $end
$var reg 1 ) clk $end
$var reg 1 * ledsign $end
$scope module uut $end
$var wire 1 # btn_diversion $end
$var wire 1 $ btn_energia $end
$var wire 1 % btn_hambre $end
$var wire 1 & btn_reset $end
$var wire 1 ' btn_salud $end
$var wire 1 ( btn_test $end
$var wire 1 ) clk $end
$var wire 1 * ledsign $end
$var reg 2 + btn_press_count [1:0] $end
$var reg 4 , display_out [3:0] $end
$var reg 4 - nivel_diversion [3:0] $end
$var reg 4 . nivel_energia [3:0] $end
$var reg 4 / nivel_hambre [3:0] $end
$var reg 4 0 nivel_salud [3:0] $end
$var reg 7 1 seg_display [6:0] $end
$var reg 1 2 test_mode $end
$var reg 8 3 timer_diversion [7:0] $end
$var reg 8 4 timer_energia [7:0] $end
$var reg 8 5 timer_hambre [7:0] $end
$var reg 8 6 timer_salud [7:0] $end
$scope function get_seg_display $end
$var reg 4 7 level [3:0] $end
$upscope $end
$upscope $end
$upscope $end
$enddefinitions $end
$comment Show the parameter values. $end
$dumpall
$end
#0
$dumpvars
bx 7
b0 6
b0 5
b0 4
b0 3
02
b0 1
b100 0
b1000 /
b1000 .
b100 -
b1000 ,
b0 +
0*
0)
0(
0'
0&
0%
0$
0#
b1000 "
b0 !
$end
#5000
b1 3
b1 5
b1 4
b1 6
b1100110 !
b1100110 1
b100 7
1)
#10000
0)
#15000
b10 3
b10 5
b10 4
b10 6
1)
#20000
0)
#25000
b11 3
b11 5
b11 4
b11 6
1)
#30000
0)
#35000
b100 3
b100 5
b100 4
b100 6
1)
#40000
0)
#45000
b101 3
b101 5
b101 4
b101 6
1)
#50000
0)
1'
#55000
b110 3
b110 5
b110 4
b110 6
b0 "
b0 ,
1)
#60000
0)
0'
#65000
b111 3
b111 5
b111 4
b111 6
1)
#70000
0)
#75000
b1000 3
b1000 5
b1000 4
b1000 6
1)
#80000
0)
1'
#85000
b101 0
b1001 3
b1001 5
b1001 4
b1001 6
1)
#90000
0)
0'
#95000
b1101101 !
b1101101 1
b100 "
b100 ,
b1010 3
b1010 5
b1010 4
b1010 6
b101 7
1)
#100000
0)
#105000
b1011 3
b1011 5
b1011 4
b1011 6
1)
#110000
0)
1'
#115000
b1100 3
b1100 5
b1100 4
b1100 6
b110 0
b100 "
b100 ,
1)
#120000
0)
#125000
b111 0
b0 "
b0 ,
b1101 3
b1101 5
b1101 4
b1101 6
b1111101 !
b1111101 1
b110 7
1)
#130000
0)
#135000
b111 !
b111 1
b100 "
b100 ,
b1110 3
b1110 5
b1110 4
b1110 6
b1000 0
b111 7
1)
#140000
0)
#145000
b1001 0
b0 "
b0 ,
b1111 3
b1111 5
b1111 4
b1111 6
b1111111 !
b1111111 1
b1000 7
1)
#150000
0)
#155000
b1101111 !
b1101111 1
b100 "
b100 ,
b10000 3
b10000 5
b10000 4
b10000 6
b1010 0
b1001 7
1)
#160000
0)
#165000
b0 "
b0 ,
b10001 3
b10001 5
b10001 4
b10001 6
b1110111 !
b1110111 1
b1010 7
1)
#170000
0)
#175000
b100 "
b100 ,
b10010 3
b10010 5
b10010 4
b10010 6
1)
#180000
0)
#185000
b0 "
b0 ,
b10011 3
b10011 5
b10011 4
b10011 6
1)
#190000
0)
#195000
b100 "
b100 ,
b10100 3
b10100 5
b10100 4
b10100 6
1)
#200000
0)
#205000
b0 "
b0 ,
b10101 3
b10101 5
b10101 4
b10101 6
1)
#210000
0)
0'
#215000
b100 "
b100 ,
b10110 3
b10110 5
b10110 4
b10110 6
1)
#220000
0)
#225000
b10111 3
b10111 5
b10111 4
b10111 6
1)
#230000
0)
1'
#235000
b11000 3
b11000 5
b11000 4
b11000 6
b100 "
b100 ,
1)
#240000
0)
0'
#245000
b11001 3
b11001 5
b11001 4
b11001 6
1)
#250000
0)
#255000
b11010 3
b11010 5
b11010 4
b11010 6
1)
#260000
0)
1'
#265000
b0 "
b0 ,
b11011 3
b11011 5
b11011 4
b11011 6
1)
#270000
0)
0'
#275000
b100 "
b100 ,
b11100 3
b11100 5
b11100 4
b11100 6
1)
#280000
0)
#285000
b11101 3
b11101 5
b11101 4
b11101 6
1)
#290000
0)
1'
#295000
b11110 3
b11110 5
b11110 4
b11110 6
b100 "
b100 ,
1)
#300000
0)
0'
#305000
b11111 3
b11111 5
b11111 4
b11111 6
1)
#310000
0)
#315000
b100000 3
b100000 5
b100000 4
b100000 6
1)
#320000
0)
1*
1$
#325000
b101 "
b101 ,
b100001 3
b100001 5
b100001 6
1)
#330000
0)
0$
#335000
b1111111 !
b1111111 1
b100010 3
b100010 5
b100010 6
b1000 7
1)
#340000
0)
#345000
b100011 3
b100011 5
b100011 6
1)
#350000
0)
1$
#355000
b100100 3
b100100 5
b100100 6
b111 .
1)
#360000
0)
0$
#365000
b100101 3
b100101 5
b100101 6
b111 !
b111 1
b111 7
1)
#370000
0)
#375000
b100110 3
b100110 5
b100110 6
1)
#380000
0)
1$
#385000
b110 .
b100111 3
b100111 5
b100111 6
1)
#390000
0)
0$
#395000
b1111101 !
b1111101 1
b101000 3
b101000 5
b101000 6
b110 7
1)
#400000
0)
#405000
b101001 3
b101001 5
b101001 6
1)
#410000
0)
1$
#415000
b101010 3
b101010 5
b101010 6
b101 .
1)
#420000
0)
0*
0$
#425000
b101011 3
b101011 5
b100001 4
b101011 6
b1101101 !
b1101101 1
b101 7
1)
#430000
0)
#435000
b101100 3
b101100 5
b100010 4
b101100 6
1)
#440000
0)
1&
#445000
b1000 "
b1000 ,
b1000 -
b1000 .
b1000 0
b101101 3
b101101 5
b100011 4
b101101 6
1)
#450000
0)
0&
#455000
b1111111 !
b1111111 1
b1100 "
b1100 ,
b101110 3
b101110 5
b100100 4
b101110 6
b1000 7
1)
#460000
0)
#465000
b101111 3
b101111 5
b100101 4
b101111 6
1)
