build/top_brain_tb.vcd
$date
	Thu Sep 05 18:44:23 2024
$end
$version
	Icarus Verilog
$end
$timescale
	1s
$end
$scope module top_brain_tb $end
$scope module UUT $end
$var wire 1 ! btn_RST $end
$var wire 1 " btn_TST $end
$var wire 1 # btn_ali $end
$var wire 1 $ btn_heal $end
$var wire 1 % btn_reset $end
$var wire 1 & btn_test $end
$var wire 1 ' clk $end
$var wire 1 ( echo $end
$var wire 1 ) rst $end
$var wire 1 * sens_ult $end
$var wire 1 + trig $end
$var wire 20 , s0 [19:0] $end
$var wire 1 - led1 $end
$var wire 1 . btn_salud $end
$var wire 1 / btn_hambre $end
$var wire 1 0 btn_diversion $end
$var wire 1 1 SDA $end
$var wire 1 2 SCL $end
$var wire 1 3 LEDX $end
$var wire 1 4 LEDSIGN $end
$scope module U_DEMO_MPU6050 $end
$var wire 1 ' MCLK $end
$var wire 1 ) RESET $end
$var wire 1 5 SCL_IN $end
$var wire 1 6 SDA_IN $end
$var wire 1 7 TIC $end
$var wire 1 8 nRST $end
$var wire 1 9 WE $end
$var wire 1 : STOP $end
$var wire 3 ; STATUS [2:0] $end
$var wire 1 < SRST $end
$var wire 1 = SDA_OUT $end
$var wire 1 1 SDA $end
$var wire 1 > SCL_OUT $end
$var wire 1 2 SCL $end
$var wire 1 ? RESCAN $end
$var wire 1 @ RD $end
$var wire 1 A QUEUED $end
$var wire 1 B NACK $end
$var wire 1 C LOAD $end
$var wire 1 3 LEDX $end
$var wire 1 4 LEDSIGN $end
$var wire 8 D DOUT [7:0] $end
$var wire 8 E DIN [7:0] $end
$var wire 1 F DATA_VALID $end
$var wire 8 G DATA [7:0] $end
$var wire 1 H COMPLETED $end
$var wire 4 I ADR [3:0] $end
$var reg 8 J XREG [7:0] $end
$var reg 8 K counter [7:0] $end
$scope module I_COMPARE_0 $end
$var wire 1 ' MCLK $end
$var wire 1 7 TIC $end
$var wire 8 L XREG [7:0] $end
$var wire 1 M ledx_a $end
$var wire 1 8 nRST $end
$var wire 1 N xy $end
$var wire 8 O x2c [7:0] $end
$var wire 1 H COMPLETED $end
$var reg 1 3 LEDX $end
$var reg 1 ? RESCAN $end
$var reg 1 4 SIGN $end
$scope function magnitude $end
$var reg 8 P a [7:0] $end
$var reg 8 Q ret [7:0] $end
$upscope $end
$upscope $end
$scope module I_I2CMASTER_0 $end
$var wire 1 ' MCLK $end
$var wire 1 5 SCL_IN $end
$var wire 1 6 SDA_IN $end
$var wire 1 7 TIC $end
$var wire 1 8 nRST $end
$var wire 1 9 WE $end
$var wire 1 < SRST $end
$var wire 1 @ RD $end
$var wire 8 R DIN [7:0] $end
$var parameter 8 S DEVICE $end
$var parameter 5 T S_CHECKACK $end
$var parameter 5 U S_CHECKACKDOWN $end
$var parameter 5 V S_CHECKACKUP $end
$var parameter 5 W S_IDLE $end
$var parameter 5 X S_PRESTOP $end
$var parameter 5 Y S_RDSCLDOWN $end
$var parameter 5 Z S_RDSCLUP $end
$var parameter 5 [ S_READ $end
$var parameter 5 \ S_RECVBIT $end
$var parameter 5 ] S_RESTART $end
$var parameter 5 ^ S_SENDACK $end
$var parameter 5 _ S_SENDACKDOWN $end
$var parameter 5 ` S_SENDACKUP $end
$var parameter 5 a S_SENDBIT $end
$var parameter 5 b S_START $end
$var parameter 5 c S_STOP $end
$var parameter 5 d S_WESCLDOWN $end
$var parameter 5 e S_WESCLUP $end
$var parameter 5 f S_WRITE $end
$var reg 1 F DATA_VALID $end
$var reg 8 g DOUT [7:0] $end
$var reg 1 B NACK $end
$var reg 1 A QUEUED $end
$var reg 1 > SCL_OUT $end
$var reg 1 = SDA_OUT $end
$var reg 3 h STATUS [2:0] $end
$var reg 1 : STOP $end
$var reg 4 i counter [3:0] $end
$var reg 1 j nackdet $end
$var reg 4 k next_counter [3:0] $end
$var reg 5 l next_state [4:0] $end
$var reg 1 m sda_in_q $end
$var reg 1 n sda_in_qq $end
$var reg 8 o shift [7:0] $end
$var reg 5 p state [4:0] $end
$upscope $end
$scope module I_MPU6050_0 $end
$var wire 1 F DATA_VALID $end
$var wire 8 q DIN [7:0] $end
$var wire 1 ' MCLK $end
$var wire 1 B NACK $end
$var wire 1 A QUEUED $end
$var wire 1 ? RESCAN $end
$var wire 1 : STOP $end
$var wire 1 7 TIC $end
$var wire 1 8 nRST $end
$var parameter 3 r S_IDLE $end
$var parameter 3 s S_PWRMGT0 $end
$var parameter 3 t S_PWRMGT1 $end
$var parameter 3 u S_READ0 $end
$var parameter 3 v S_READ1 $end
$var parameter 3 w S_STABLE $end
$var reg 4 x ADR [3:0] $end
$var reg 1 H COMPLETED $end
$var reg 8 y DATA [7:0] $end
$var reg 8 z DOUT [7:0] $end
$var reg 1 C LOAD $end
$var reg 1 @ RD $end
$var reg 1 < SRST $end
$var reg 1 9 WE $end
$var reg 4 { adr_i [3:0] $end
$var reg 3 | state [2:0] $end
$upscope $end
$upscope $end
$scope module U_tamagotchi_fsm $end
$var wire 1 * btn_diversion $end
$var wire 1 4 btn_energia $end
$var wire 1 % btn_reset $end
$var wire 1 & btn_test $end
$var wire 1 ' clk $end
$var wire 1 } ledsign $end
$var wire 1 . btn_salud $end
$var wire 1 / btn_hambre $end
$var reg 2 ~ btn_press_count [1:0] $end
$var reg 4 !" display_out [3:0] $end
$var reg 4 "" nivel_diversion [3:0] $end
$var reg 4 #" nivel_energia [3:0] $end
$var reg 4 $" nivel_hambre [3:0] $end
$var reg 4 %" nivel_salud [3:0] $end
$var reg 7 &" seg_display [6:0] $end
$var reg 1 '" test_mode $end
$var reg 8 (" timer_diversion [7:0] $end
$var reg 8 )" timer_energia [7:0] $end
$var reg 8 *" timer_hambre [7:0] $end
$var reg 8 +" timer_salud [7:0] $end
$scope function get_seg_display $end
$var reg 4 ," level [3:0] $end
$upscope $end
$upscope $end
$scope module U_top $end
$var wire 1 ' clk $end
$var wire 1 ( echo $end
$var wire 1 + trig $end
$var wire 1 0 sens_ult $end
$var wire 20 -" s0 [19:0] $end
$var wire 1 - led1 $end
$scope module ContadorConEcho_i1 $end
$var wire 1 ' clk $end
$var wire 1 ( echo $end
$var reg 20 ." contador2 [19:0] $end
$upscope $end
$scope module ContadorConTrigger_i0 $end
$var wire 1 ' clk $end
$var wire 1 ( echo $end
$var parameter 20 /" limite $end
$var reg 20 0" contador1 [19:0] $end
$var reg 1 + trigger $end
$upscope $end
$scope module ControlLed_i2 $end
$var wire 1 ' clk $end
$var wire 20 1" contador2 [19:0] $end
$var wire 1 ( echo $end
$var parameter 10 2" DOWNSENS $end
$var parameter 14 3" L $end
$var parameter 14 4" Lm $end
$var reg 10 5" downSens [9:0] $end
$var reg 1 - led1 $end
$var reg 1 0 sens_ult $end
$upscope $end
$upscope $end
$scope module U_topBtn $end
$var wire 1 ! btn_RST $end
$var wire 1 " btn_TST $end
$var wire 1 # btn_ali $end
$var wire 1 $ btn_heal $end
$var wire 1 ' clk $end
$var wire 1 6" heal $end
$var wire 1 7" ali $end
$var wire 1 8" TST $end
$var wire 1 9" RST $end
$var reg 1 / btn_hambre $end
$var reg 1 :" btn_reset $end
$var reg 1 . btn_salud $end
$var reg 1 ;" btn_test $end
$scope module B_ali $end
$var wire 1 # boton_in $end
$var wire 1 ' clk $end
$var parameter 32 <" COUNT_BOT $end
$var reg 1 7" boton_out $end
$var reg 16 =" counter [15:0] $end
$var reg 1 >" reset $end
$upscope $end
$scope module B_heal $end
$var wire 1 $ boton_in $end
$var wire 1 ' clk $end
$var parameter 32 ?" COUNT_BOT $end
$var reg 1 6" boton_out $end
$var reg 16 @" counter [15:0] $end
$var reg 1 A" reset $end
$upscope $end
$scope module B_rst $end
$var wire 1 ! boton_in $end
$var wire 1 ' clk $end
$var parameter 32 B" COUNT_LIMIT $end
$var reg 1 9" boton_out $end
$var reg 12 C" counter [11:0] $end
$upscope $end
$scope module B_tst $end
$var wire 1 " boton_in $end
$var wire 1 ' clk $end
$var parameter 32 D" COUNT_LIMIT $end
$var reg 1 8" boton_out $end
$var reg 12 E" counter [11:0] $end
$upscope $end
$upscope $end
$upscope $end
$upscope $end
$enddefinitions $end
$comment Show the parameter values. $end
$dumpall
b100111000100 D"
b100111000100 B"
b1100001101010000 ?"
b1100001101010000 <"
b101110000110 4"
b11100110011110 3"
b111110100 2"
b111110100 /"
b101 w
b100 v
b11 u
b10 t
b1 s
b0 r
b1000 f
b11 e
b100 d
b1010 c
b1 b
b10 a
b10000 `
b10001 _
b1111 ^
b10010 ]
b1100 \
b1011 [
b1101 Z
b1110 Y
b1001 X
b0 W
b110 V
b111 U
b101 T
b1101000 S
$end
#0
$dumpvars
b0 E"
b0 C"
0A"
bx @"
0>"
bx ="
0;"
0:"
09"
08"
07"
06"
b0 5"
b0 1"
b0 0"
b0 ."
b0 -"
bx ,"
b0 +"
b0 *"
b0 )"
b0 ("
0'"
b0 &"
b100 %"
b1000 $"
b1000 #"
b100 ""
b1000 !"
b0 ~
z}
b0 |
bx {
bx z
bx y
bx x
bx q
bx p
bx o
xn
xm
bx l
bx k
xj
bx i
bx h
bx g
bx R
bx Q
bx P
bx O
xN
xM
bx L
b0 K
bx J
bx I
xH
bx G
xF
bx E
bx D
xC
xB
xA
x@
x?
x>
x=
x<
bx ;
x:
x9
x8
07
x6
x5
x4
x3
x2
x1
00
0/
0.
0-
b0 ,
0+
z*
x)
0(
0'
z&
0%
0$
0#
0"
0!
$end
#10
b0 p
b1 K
b0 @"
b0 ="
1+
b1 0"
b1 ("
b1 *"
b1 +"
b1100110 &"
b100 ,"
1'
#20
0'
#30
b1 k
z6
z1
z5
z2
b10 K
0:
b0 i
b1 D
b1 g
b1 q
0F
0A
0B
1=
1>
b0 ;
b0 h
b10 ("
b10 *"
b10 +"
b10 0"
1'
#40
0'
#50
zm
b11 K
b11 0"
b11 ("
b11 *"
b11 +"
1'
#60
0'
#70
b100 K
zn
b100 ("
b100 *"
b100 +"
b100 0"
1'
#80
0'
#90
b101 K
b101 0"
b101 ("
b101 *"
b101 +"
1'
#100
0'
1!
#110
b110 K
b110 ("
b110 *"
b110 +"
b110 0"
b1 C"
1'
#120
0'
#130
b111 K
b10 C"
b111 0"
b111 ("
b111 *"
b111 +"
1'
#140
0'
#150
b1000 K
b1000 ("
b1000 *"
b1000 +"
b1000 0"
b11 C"
1'
#160
0'
#170
b1001 K
b100 C"
b1001 0"
b1001 ("
b1001 *"
b1001 +"
1'
#180
0'
#190
b1010 K
b1010 ("
b1010 *"
b1010 +"
b1010 0"
b101 C"
1'
#200
0'
#210
b1011 K
b110 C"
b1011 0"
b1011 ("
b1011 *"
b1011 +"
1'
#220
0'
#230
b1100 K
b1100 ("
b1100 *"
b1100 +"
b1100 0"
b111 C"
1'
#240
0'
#250
b1101 K
b1000 C"
b1101 0"
b1101 ("
b1101 *"
b1101 +"
1'
#260
0'
#270
b1110 K
b1110 ("
b1110 *"
b1110 +"
b1110 0"
b1001 C"
1'
#280
0'
#290
b1111 K
b1010 C"
b1111 0"
b1111 ("
b1111 *"
b1111 +"
1'
#300
0'
0!
#310
b10000 K
b10000 ("
b10000 *"
b10000 +"
b10000 0"
b0 C"
1'
#320
0'
#330
b10001 K
b10001 0"
b10001 ("
b10001 *"
b10001 +"
1'
#340
0'
#350
b10010 K
b10010 ("
b10010 *"
b10010 +"
b10010 0"
1'
#360
0'
#370
b10011 K
b10011 0"
b10011 ("
b10011 *"
b10011 +"
1'
#380
0'
#390
b10100 K
b10100 ("
b10100 *"
b10100 +"
b10100 0"
1'
#400
0'
#410
b10101 K
b10101 0"
b10101 ("
b10101 *"
b10101 +"
1'
#420
0'
#430
b10110 K
b10110 ("
b10110 *"
b10110 +"
b10110 0"
1'
#440
0'
#450
b10111 K
b10111 0"
b10111 ("
b10111 *"
b10111 +"
1'
#460
0'
#470
b11000 K
b11000 ("
b11000 *"
b11000 +"
b11000 0"
1'
#480
0'
#490
b11001 K
b11001 0"
b11001 ("
b11001 *"
b11001 +"
1'
#500
0'
1!
#510
b11010 K
b11010 ("
b11010 *"
b11010 +"
b11010 0"
b1 C"
1'
#520
0'
#530
b11011 K
b10 C"
b11011 0"
b11011 ("
b11011 *"
b11011 +"
1'
#540
0'
#550
b11100 K
b11100 ("
b11100 *"
b11100 +"
b11100 0"
b11 C"
1'
#560
0'
#570
b11101 K
b100 C"
b11101 0"
b11101 ("
b11101 *"
b11101 +"
1'
#580
0'
#590
b11110 K
b11110 ("
b11110 *"
b11110 +"
b11110 0"
b101 C"
1'
#600
0'
#610
b11111 K
b110 C"
b11111 0"
b11111 ("
b11111 *"
b11111 +"
1'
#620
0'
#630
b100000 K
b100000 ("
b100000 *"
b100000 +"
b100000 0"
b111 C"
1'
#640
0'
#650
b100001 K
b1000 C"
b100001 0"
b100001 ("
b100001 *"
b100001 +"
1'
#660
0'
#670
b100010 K
b100010 ("
b100010 *"
b100010 +"
b100010 0"
b1001 C"
1'
#680
0'
#690
b100011 K
b1010 C"
b100011 0"
b100011 ("
b100011 *"
b100011 +"
1'
#700
0'
#710
b100100 K
b100100 ("
b100100 *"
b100100 +"
b100100 0"
b1011 C"
1'
#720
0'
#730
b100101 K
b1100 C"
b100101 0"
b100101 ("
b100101 *"
b100101 +"
1'
#740
0'
#750
b100110 K
b100110 ("
b100110 *"
b100110 +"
b100110 0"
b1101 C"
1'
#760
0'
#770
b100111 K
b1110 C"
b100111 0"
b100111 ("
b100111 *"
b100111 +"
1'
#780
0'
#790
b101000 K
b101000 ("
b101000 *"
b101000 +"
b101000 0"
b1111 C"
1'
#800
0'
#810
b101001 K
b10000 C"
b101001 0"
b101001 ("
b101001 *"
b101001 +"
1'
#820
0'
#830
b101010 K
b101010 ("
b101010 *"
b101010 +"
b101010 0"
b10001 C"
1'
#840
0'
#850
b101011 K
b10010 C"
b101011 0"
b101011 ("
b101011 *"
b101011 +"
1'
#860
0'
#870
b101100 K
b101100 ("
b101100 *"
b101100 +"
b101100 0"
b10011 C"
1'
#880
0'
#890
b101101 K
b10100 C"
b101101 0"
b101101 ("
b101101 *"
b101101 +"
1'
#900
0'
#910
b101110 K
b101110 ("
b101110 *"
b101110 +"
b101110 0"
b10101 C"
1'
#920
0'
#930
b101111 K
b10110 C"
b101111 0"
b101111 ("
b101111 *"
b101111 +"
1'
#940
0'
#950
b110000 K
b110000 ("
b110000 *"
b110000 +"
b110000 0"
b10111 C"
1'
#960
0'
#970
b110001 K
b11000 C"
b110001 0"
b110001 ("
b110001 *"
b110001 +"
1'
#980
0'
#990
b110010 K
b110010 ("
b110010 *"
b110010 +"
b110010 0"
b11001 C"
1'
#1000
0'
#1010
b110011 K
b11010 C"
b110011 0"
b0 ("
b11 ""
b110011 *"
b110011 +"
1'
#1020
0'
#1030
b110100 K
b1 ("
b110100 *"
b110100 +"
b110100 0"
b11011 C"
1'
#1040
0'
#1050
b110101 K
b11100 C"
b110101 0"
b10 ("
b110101 *"
b110101 +"
1'
#1060
0'
#1070
b110110 K
b11 ("
b110110 *"
b110110 +"
b110110 0"
b11101 C"
1'
#1080
0'
#1090
b110111 K
b11110 C"
b110111 0"
b100 ("
b110111 *"
b110111 +"
1'
#1100
0'
#1110
b111000 K
b101 ("
b111000 *"
b111000 +"
b111000 0"
b11111 C"
1'
#1120
0'
#1130
b111001 K
b100000 C"
b111001 0"
b110 ("
b111001 *"
b111001 +"
1'
#1140
0'
#1150
b111010 K
b111 ("
b111010 *"
b111010 +"
b111010 0"
b100001 C"
1'
#1160
0'
#1170
b111011 K
b100010 C"
b111011 0"
b1000 ("
b111011 *"
b111011 +"
1'
#1180
0'
#1190
b111100 K
b1001 ("
b111100 *"
b111100 +"
b111100 0"
b100011 C"
1'
#1200
0'
#1210
b111101 K
b100100 C"
b111101 0"
b1010 ("
b111101 *"
b111101 +"
1'
#1220
0'
#1230
b111110 K
b1011 ("
b111110 *"
b111110 +"
b111110 0"
b100101 C"
1'
#1240
0'
#1250
b111111 K
b100110 C"
b111111 0"
b1100 ("
b111111 *"
b111111 +"
1'
#1260
0'
#1270
b1000000 K
b1101 ("
b1000000 *"
b1000000 +"
b1000000 0"
b100111 C"
1'
#1280
0'
#1290
b1000001 K
b101000 C"
b1000001 0"
b1110 ("
b1000001 *"
b1000001 +"
1'
#1300
0'
#1310
b1000010 K
b1111 ("
b1000010 *"
b1000010 +"
b1000010 0"
b101001 C"
1'
#1320
0'
#1330
b1000011 K
b101010 C"
b1000011 0"
b10000 ("
b1000011 *"
b1000011 +"
1'
#1340
0'
#1350
b1000100 K
b10001 ("
b1000100 *"
b1000100 +"
b1000100 0"
b101011 C"
1'
#1360
0'
#1370
b1000101 K
b101100 C"
b1000101 0"
b10010 ("
b1000101 *"
b1000101 +"
1'
#1380
0'
#1390
b1000110 K
b10011 ("
b1000110 *"
b1000110 +"
b1000110 0"
b101101 C"
1'
#1400
0'
#1410
b1000111 K
b101110 C"
b1000111 0"
b10100 ("
b0 *"
b111 $"
b1000111 +"
1'
#1420
0'
#1430
b1001000 K
b10101 ("
b1 *"
b1001000 +"
b1001000 0"
b101111 C"
1'
#1440
0'
#1450
b1001001 K
b110000 C"
b1001001 0"
b10110 ("
b10 *"
b1001001 +"
1'
#1460
0'
#1470
b1001010 K
b10111 ("
b11 *"
b1001010 +"
b1001010 0"
b110001 C"
1'
#1480
0'
#1490
b1001011 K
b110010 C"
b1001011 0"
b11000 ("
b100 *"
b1001011 +"
1'
#1500
0'
#1510
b1001100 K
b11001 ("
b101 *"
b1001100 +"
b1001100 0"
b110011 C"
1'
#1520
0'
#1530
b1001101 K
b110100 C"
b1001101 0"
b11010 ("
b110 *"
b1001101 +"
1'
#1540
0'
#1550
b1001110 K
b11011 ("
b111 *"
b1001110 +"
b1001110 0"
b110101 C"
1'
#1560
0'
#1570
b1001111 K
b110110 C"
b1001111 0"
b11100 ("
b1000 *"
b1001111 +"
1'
#1580
0'
#1590
b1010000 K
b11101 ("
b1001 *"
b1010000 +"
b1010000 0"
b110111 C"
1'
#1600
0'
#1610
b1010001 K
b111000 C"
b1010001 0"
b11110 ("
b1010 *"
b1010001 +"
1'
#1620
0'
#1630
b1010010 K
b11111 ("
b1011 *"
b1010010 +"
b1010010 0"
b111001 C"
1'
#1640
0'
#1650
b1010011 K
b111010 C"
b1010011 0"
b100000 ("
b1100 *"
b1010011 +"
1'
#1660
0'
#1670
b1010100 K
b100001 ("
b1101 *"
b1010100 +"
b1010100 0"
b111011 C"
1'
#1680
0'
#1690
b1010101 K
b111100 C"
b1010101 0"
b100010 ("
b1110 *"
b1010101 +"
1'
#1700
0'
#1710
b1010110 K
b100011 ("
b1111 *"
b1010110 +"
b1010110 0"
b111101 C"
1'
#1720
0'
#1730
b1010111 K
b111110 C"
b1010111 0"
b100100 ("
b10000 *"
b1010111 +"
1'
#1740
0'
#1750
b1011000 K
b100101 ("
b10001 *"
b1011000 +"
b1011000 0"
b111111 C"
1'
#1760
0'
#1770
b1011001 K
b1000000 C"
b1011001 0"
b100110 ("
b10010 *"
b1011001 +"
1'
#1780
0'
#1790
b1011010 K
b100111 ("
b10011 *"
b1011010 +"
b1011010 0"
b1000001 C"
1'
#1800
0'
#1810
b1011011 K
b1000010 C"
b1011011 0"
b101000 ("
b10100 *"
b1011011 +"
1'
#1820
0'
#1830
b1011100 K
b101001 ("
b10101 *"
b1011100 +"
b1011100 0"
b1000011 C"
1'
#1840
0'
#1850
b1011101 K
b1000100 C"
b1011101 0"
b101010 ("
b10110 *"
b1011101 +"
1'
#1860
0'
#1870
b1011110 K
b101011 ("
b10111 *"
b1011110 +"
b1011110 0"
b1000101 C"
1'
#1880
0'
#1890
b1011111 K
b1000110 C"
b1011111 0"
b101100 ("
b11000 *"
b1011111 +"
1'
#1900
0'
#1910
b1100000 K
b101101 ("
b11001 *"
b1100000 +"
b1100000 0"
b1000111 C"
1'
#1920
0'
#1930
b1100001 K
b1001000 C"
b1100001 0"
b101110 ("
b11010 *"
b1100001 +"
1'
#1940
0'
#1950
b1100010 K
b101111 ("
b11011 *"
b1100010 +"
b1100010 0"
b1001001 C"
1'
#1960
0'
#1970
b1100011 K
b1001010 C"
b1100011 0"
b110000 ("
b11100 *"
b1100011 +"
1'
#1980
0'
#1990
b1100100 K
b110001 ("
b11101 *"
b1100100 +"
b1100100 0"
b1001011 C"
1'
#2000
0'
#2010
b1100101 K
b1001100 C"
b1100101 0"
b110010 ("
b11110 *"
b1100101 +"
1'
#2020
0'
#2030
b1100110 K
b0 ("
b10 ""
b11111 *"
b1100110 +"
b1100110 0"
b1001101 C"
1'
#2040
0'
#2050
b1100111 K
b1001110 C"
b1100111 0"
b1 ("
b100000 *"
b1100111 +"
1'
#2060
0'
#2070
b1101000 K
b10 ("
b100001 *"
b1101000 +"
b1101000 0"
b1001111 C"
1'
#2080
0'
#2090
b1101001 K
b1010000 C"
b1101001 0"
b11 ("
b100010 *"
b1101001 +"
1'
#2100
0'
#2110
b1101010 K
b100 ("
b100011 *"
b1101010 +"
b1101010 0"
b1010001 C"
1'
#2120
0'
#2130
b1101011 K
b1010010 C"
b1101011 0"
b101 ("
b100100 *"
b1101011 +"
1'
#2140
0'
#2150
b1101100 K
b110 ("
b100101 *"
b1101100 +"
b1101100 0"
b1010011 C"
1'
#2160
0'
#2170
b1101101 K
b1010100 C"
b1101101 0"
b111 ("
b100110 *"
b1101101 +"
1'
#2180
0'
#2190
b1101110 K
b1000 ("
b100111 *"
b1101110 +"
b1101110 0"
b1010101 C"
1'
#2200
0'
#2210
b1101111 K
b1010110 C"
b1101111 0"
b1001 ("
b101000 *"
b1101111 +"
1'
#2220
0'
#2230
b1110000 K
b1010 ("
b101001 *"
b1110000 +"
b1110000 0"
b1010111 C"
1'
#2240
0'
#2250
b1110001 K
b1011000 C"
b1110001 0"
b1011 ("
b101010 *"
b1110001 +"
1'
#2260
0'
#2270
b1110010 K
b1100 ("
b101011 *"
b1110010 +"
b1110010 0"
b1011001 C"
1'
#2280
0'
#2290
b1110011 K
b1011010 C"
b1110011 0"
b1101 ("
b101100 *"
b1110011 +"
1'
#2300
0'
#2310
b1110100 K
b1110 ("
b101101 *"
b1110100 +"
b1110100 0"
b1011011 C"
1'
#2320
0'
#2330
b1110101 K
b1011100 C"
b1110101 0"
b1111 ("
b101110 *"
b1110101 +"
1'
#2340
0'
#2350
b1110110 K
b10000 ("
b101111 *"
b1110110 +"
b1110110 0"
b1011101 C"
1'
#2360
0'
#2370
b1110111 K
b1011110 C"
b1110111 0"
b10001 ("
b110000 *"
b1110111 +"
1'
#2380
0'
#2390
b1111000 K
b10010 ("
b110001 *"
b1111000 +"
b1111000 0"
b1011111 C"
1'
#2400
0'
#2410
b1111001 K
b1100000 C"
b1111001 0"
b10011 ("
b110010 *"
b0 +"
b11 %"
1'
#2420
0'
#2430
b1111010 K
b1001111 &"
b10100 ("
b110011 *"
b1 +"
b1111010 0"
b1100001 C"
b11 ,"
1'
#2440
0'
#2450
b1111011 K
b1100010 C"
b1111011 0"
b10101 ("
b110100 *"
b10 +"
1'
#2460
0'
#2470
b1111100 K
b10110 ("
b110101 *"
b11 +"
b1111100 0"
b1100011 C"
1'
#2480
0'
#2490
b1111101 K
b1100100 C"
b1111101 0"
b10111 ("
b110110 *"
b100 +"
1'
#2500
0'
#2510
b1111110 K
b11000 ("
b110111 *"
b101 +"
b1111110 0"
b1100101 C"
1'
#2520
0'
#2530
b1111111 K
b1100110 C"
b1111111 0"
b11001 ("
b111000 *"
b110 +"
1'
#2540
0'
#2550
b10000000 K
b11010 ("
b111001 *"
b111 +"
b10000000 0"
b1100111 C"
1'
#2560
0'
#2570
b10000001 K
b1101000 C"
b10000001 0"
b11011 ("
b111010 *"
b1000 +"
1'
#2580
0'
#2590
b10000010 K
b11100 ("
b111011 *"
b1001 +"
b10000010 0"
b1101001 C"
1'
#2600
0'
#2610
b10000011 K
b1101010 C"
b10000011 0"
b11101 ("
b111100 *"
b1010 +"
1'
#2620
0'
#2630
b10000100 K
b11110 ("
b111101 *"
b1011 +"
b10000100 0"
b1101011 C"
1'
#2640
0'
#2650
b10000101 K
b1101100 C"
b10000101 0"
b11111 ("
b111110 *"
b1100 +"
1'
#2660
0'
#2670
b10000110 K
b100000 ("
b111111 *"
b1101 +"
b10000110 0"
b1101101 C"
1'
#2680
0'
#2690
b10000111 K
b1101110 C"
b10000111 0"
b100001 ("
b1000000 *"
b1110 +"
1'
#2700
0'
#2710
b10001000 K
b100010 ("
b1000001 *"
b1111 +"
b10001000 0"
b1101111 C"
1'
#2720
0'
#2730
b10001001 K
b1110000 C"
b10001001 0"
b100011 ("
b1000010 *"
b10000 +"
1'
#2740
0'
#2750
b10001010 K
b100100 ("
b1000011 *"
b10001 +"
b10001010 0"
b1110001 C"
1'
#2760
0'
#2770
b10001011 K
b1110010 C"
b10001011 0"
b100101 ("
b1000100 *"
b10010 +"
1'
#2780
0'
#2790
b10001100 K
b100110 ("
b1000101 *"
b10011 +"
b10001100 0"
b1110011 C"
1'
#2800
0'
#2810
b10001101 K
b1110100 C"
b10001101 0"
b100111 ("
b1000110 *"
b10100 +"
1'
#2820
0'
#2830
b10001110 K
b101000 ("
b0 *"
b110 $"
b10101 +"
b10001110 0"
b1110101 C"
1'
#2840
0'
#2850
b10001111 K
b1110110 C"
b10001111 0"
b101001 ("
b1 *"
b10110 +"
1'
#2860
0'
#2870
b10010000 K
b101010 ("
b10 *"
b10111 +"
b10010000 0"
b1110111 C"
1'
#2880
0'
#2890
b10010001 K
b1111000 C"
b10010001 0"
b101011 ("
b11 *"
b11000 +"
1'
#2900
0'
#2910
b10010010 K
b101100 ("
b100 *"
b11001 +"
b10010010 0"
b1111001 C"
1'
#2920
0'
#2930
b10010011 K
b1111010 C"
b10010011 0"
b101101 ("
b101 *"
b11010 +"
1'
#2940
0'
#2950
b10010100 K
b101110 ("
b110 *"
b11011 +"
b10010100 0"
b1111011 C"
1'
#2960
0'
#2970
b10010101 K
b1111100 C"
b10010101 0"
b101111 ("
b111 *"
b11100 +"
1'
#2980
0'
#2990
b10010110 K
b110000 ("
b1000 *"
b11101 +"
b10010110 0"
b1111101 C"
1'
#3000
0'
#3010
b10010111 K
b1111110 C"
b10010111 0"
b110001 ("
b1001 *"
b11110 +"
1'
#3020
0'
#3030
b10011000 K
b110010 ("
b1010 *"
b11111 +"
b10011000 0"
b1111111 C"
1'
#3040
0'
#3050
b10011001 K
b10000000 C"
b10011001 0"
b0 ("
b1 ""
b1011 *"
b100000 +"
1'
#3060
0'
#3070
b10011010 K
b1 ("
b1100 *"
b100001 +"
b10011010 0"
b10000001 C"
1'
#3080
0'
#3090
b10011011 K
b10000010 C"
b10011011 0"
b10 ("
b1101 *"
b100010 +"
1'
#3100
0'
#3110
b10011100 K
b11 ("
b1110 *"
b100011 +"
b10011100 0"
b10000011 C"
1'
#3120
0'
#3130
b10011101 K
b10000100 C"
b10011101 0"
b100 ("
b1111 *"
b100100 +"
1'
#3140
0'
#3150
b10011110 K
b101 ("
b10000 *"
b100101 +"
b10011110 0"
b10000101 C"
1'
#3160
0'
#3170
b10011111 K
b10000110 C"
b10011111 0"
b110 ("
b10001 *"
b100110 +"
1'
#3180
0'
#3190
17
b10100000 K
b111 ("
b10010 *"
b100111 +"
b10100000 0"
b10000111 C"
1'
#3200
0'
#3210
07
b0 I
b0 x
b1 |
0H
b11111111 G
b11111111 y
0C
b0 {
09
0@
b0 E
b0 R
b0 z
0<
0?
b0 K
b10001000 C"
b10100001 0"
b1000 ("
b10011 *"
b101000 +"
1'
#3220
0'
#3230
b1 K
b1001 ("
b10100 *"
b101001 +"
b10100010 0"
b10001001 C"
1'
#3240
0'
#3250
b10 K
b10001010 C"
b10100011 0"
b1010 ("
b10101 *"
b101010 +"
1'
#3260
0'
#3270
b11 K
b1011 ("
b10110 *"
b101011 +"
b10100100 0"
b10001011 C"
1'
#3280
0'
#3290
b100 K
b10001100 C"
b10100101 0"
b1100 ("
b10111 *"
b101100 +"
1'
#3300
0'
#3310
b101 K
b1101 ("
b11000 *"
b101101 +"
b10100110 0"
b10001101 C"
1'
#3320
0'
#3330
b110 K
b10001110 C"
b10100111 0"
b1110 ("
b11001 *"
b101110 +"
1'
#3340
0'
#3350
b111 K
b1111 ("
b11010 *"
b101111 +"
b10101000 0"
b10001111 C"
1'
#3360
0'
#3370
b1000 K
b10010000 C"
b10101001 0"
b10000 ("
b11011 *"
b110000 +"
1'
#3380
0'
#3390
b1001 K
b10001 ("
b11100 *"
b110001 +"
b10101010 0"
b10010001 C"
1'
#3400
0'
#3410
b1010 K
b10010010 C"
b10101011 0"
b10010 ("
b11101 *"
b110010 +"
1'
#3420
0'
#3430
b1011 K
b10011 ("
b11110 *"
b110011 +"
b10101100 0"
b10010011 C"
1'
#3440
0'
#3450
b1100 K
b10010100 C"
b10101101 0"
b10100 ("
b11111 *"
b110100 +"
1'
#3460
0'
#3470
b1101 K
b10101 ("
b100000 *"
b110101 +"
b10101110 0"
b10010101 C"
1'
#3480
0'
#3490
b1110 K
b10010110 C"
b10101111 0"
b10110 ("
b100001 *"
b110110 +"
1'
#3500
0'
#3510
b1111 K
b10111 ("
b100010 *"
b110111 +"
b10110000 0"
b10010111 C"
1'
#3520
0'
#3530
b10000 K
b10011000 C"
b10110001 0"
b11000 ("
b100011 *"
b111000 +"
1'
#3540
0'
#3550
b10001 K
b11001 ("
b100100 *"
b111001 +"
b10110010 0"
b10011001 C"
1'
#3560
0'
#3570
b10010 K
b10011010 C"
b10110011 0"
b11010 ("
b100101 *"
b111010 +"
1'
#3580
0'
#3590
b10011 K
b11011 ("
b100110 *"
b111011 +"
b10110100 0"
b10011011 C"
1'
#3600
0'
